\relax 
\providecommand\hyper@newdestlabel[2]{}
\providecommand\HyperFirstAtBeginDocument{\AtBeginDocument}
\HyperFirstAtBeginDocument{\ifx\hyper@anchor\@undefined
\global\let\oldcontentsline\contentsline
\gdef\contentsline#1#2#3#4{\oldcontentsline{#1}{#2}{#3}}
\global\let\oldnewlabel\newlabel
\gdef\newlabel#1#2{\newlabelxx{#1}#2}
\gdef\newlabelxx#1#2#3#4#5#6{\oldnewlabel{#1}{{#2}{#3}}}
\AtEndDocument{\ifx\hyper@anchor\@undefined
\let\contentsline\oldcontentsline
\let\newlabel\oldnewlabel
\fi}
\fi}
\global\let\hyper@last\relax 
\gdef\HyperFirstAtBeginDocument#1{#1}
\providecommand\HyField@AuxAddToFields[1]{}
\providecommand\HyField@AuxAddToCoFields[2]{}
\@writefile{toc}{\contentsline {section}{\tocsection {}{1}{Prelab Report}}{1}{section.1}\protected@file@percent }
\@writefile{toc}{\contentsline {subsection}{\tocsubsection {}{1.1}{Objective}}{1}{subsection.1.1}\protected@file@percent }
\@writefile{toc}{\contentsline {subsection}{\tocsubsection {}{1.2}{Procedure}}{1}{subsection.1.2}\protected@file@percent }
\@writefile{lof}{\contentsline {figure}{\numberline {1}{\ignorespaces The set up.}}{1}{figure.1}\protected@file@percent }
\newlabel{set_up}{{1}{1}{The set up}{figure.1}{}}
\@writefile{lot}{\contentsline {table}{\numberline {1}{\ignorespaces Equipment.}}{2}{table.1}\protected@file@percent }
\newlabel{equipment}{{1}{2}{Equipment}{table.1}{}}
\@writefile{toc}{\contentsline {section}{\tocsection {}{2}{In-Lab Report}}{2}{section.2}\protected@file@percent }
\@writefile{toc}{\contentsline {subsection}{\tocsubsection {}{2.1}{Procedure}}{2}{subsection.2.1}\protected@file@percent }
\@writefile{lof}{\contentsline {figure}{\numberline {2}{\ignorespaces }}{2}{figure.2}\protected@file@percent }
\newlabel{calibration}{{2}{2}{}{figure.2}{}}
\@writefile{lof}{\contentsline {figure}{\numberline {3}{\ignorespaces }}{3}{figure.3}\protected@file@percent }
\newlabel{spectra}{{3}{3}{}{figure.3}{}}
\newlabel{tocindent-1}{0pt}
\newlabel{tocindent0}{0pt}
\newlabel{tocindent1}{20.88377pt}
\newlabel{tocindent2}{34.49158pt}
\newlabel{tocindent3}{0pt}
\@writefile{toc}{\contentsline {section}{\tocsection {}{3}{Postlab Report}}{A1}{section.3}\protected@file@percent }
\@writefile{toc}{\contentsline {subsection}{\tocsubsection {}{3.1}{Summary and Conclusions}}{A1}{subsection.3.1}\protected@file@percent }
